{
  "status": 200,
  "data": {
    "devices": [
      {
        "id": 12504,
        "name": "Galaxy A05",
        "img": "http://mobilephonesdb.com/images/c3c5be50-7dfe-48bb-af29-252a38e645d9.jpg",
        "description": "Samsung Galaxy A05 Android smartphone. Announced Sep 2023. Features 6.7″  display, MT6769V chipset, 5000 mAh battery, 128 GB storage, 6 GB RAM."
      },
      {
        "id": 12503,
        "name": "Galaxy A05s",
        "img": "http://mobilephonesdb.com/images/28d31ee5-64c9-46f3-8e00-c21bd4ac9525.jpg",
        "description": "Samsung Galaxy A05s Android smartphone. Announced Sep 2023. Features 6.7″  display, Snapdragon 680 4G chipset, 5000 mAh battery, 128 GB storage, 6 GB RAM."
      },
      {
        "id": 12502,
        "name": "Galaxy Tab S9 FE",
        "img": "http://mobilephonesdb.com/images/cfa6e42d-de5c-43d7-9e7e-fa6426ea0dfe.jpg",
        "description": "Samsung Galaxy Tab S9 FE Android tablet. Announced Oct 2023. Features 10.9″  display, Exynos 1380 chipset, 8000 mAh battery, 256 GB storage, 8 GB RAM."
      },
      {
        "id": 12501,
        "name": "Galaxy Tab S9 FE+",
        "img": "http://mobilephonesdb.com/images/8dcb626b-676c-4483-a566-a28eaa4b769a.jpg",
        "description": "Samsung Galaxy Tab S9 FE+ Android tablet. Announced Oct 2023. Features 12.4″  display, Exynos 1380 chipset, 10090 mAh battery, 256 GB storage, 12 GB RAM."
      },
      {
        "id": 12500,
        "name": "Galaxy S23 FE",
        "img": "http://mobilephonesdb.com/images/f8c61113-3091-4259-b0c4-10c879024e6e.jpg",
        "description": "Samsung Galaxy S23 FE Android smartphone. Announced Oct 2023. Features 6.4″  display, Exynos 2200 chipset, 4500 mAh battery, 256 GB storage, 8 GB RAM, Corning Gorilla Glass 5."
      },
      {
        "id": 12499,
        "name": "Galaxy Tab A9",
        "img": "http://mobilephonesdb.com/images/86ff5ebf-5a37-4253-9c0c-f81fd1566ce3.jpg",
        "description": "Samsung Galaxy Tab A9 Android tablet. Announced Oct 2023. Features 8.7″  display, MT8781V chipset, 5100 mAh battery, 128 GB storage, 8 GB RAM."
      },
      {
        "id": 12498,
        "name": "Galaxy Tab A9+",
        "img": "http://mobilephonesdb.com/images/d7c8ad5e-61c4-4102-a8bd-d8b7271beb59.jpg",
        "description": "Samsung Galaxy Tab A9+ Android tablet. Announced Oct 2023. Features 11.0″  display, Snapdragon 695 5G chipset, 7040 mAh battery, 128 GB storage, 8 GB RAM."
      },
      {
        "id": 12395,
        "name": "Galaxy Watch6",
        "img": "http://mobilephonesdb.com/images/303e0a4f-c9a2-4bab-9c3b-415274b6e607.jpg",
        "description": "Samsung Galaxy Watch6 Android watch. Announced Jul 2023. Features 1.5″  display, Exynos W930 chipset, 425 mAh battery, 16 GB storage, 2 GB RAM, MIL-STD-810H compliant, Sapphire crystal."
      },
      {
        "id": 12394,
        "name": "Galaxy Watch6 Classic",
        "img": "http://mobilephonesdb.com/images/1fda4e6a-ed52-4e50-824c-2cdaf213b762.jpg",
        "description": "Samsung Galaxy Watch6 Classic Android watch. Announced Jul 2023. Features 1.5″  display, Exynos W930 chipset, 425 mAh battery, 16 GB storage, 2 GB RAM, MIL-STD-810H compliant, Sapphire crystal."
      },
      {
        "id": 12393,
        "name": "Galaxy Tab S9",
        "img": "http://mobilephonesdb.com/images/395d25e7-3895-446d-8a65-98abfc3061e2.jpg",
        "description": "Samsung Galaxy Tab S9 Android tablet. Announced Jul 2023. Features 11.0″  display, Snapdragon 8 Gen 2 chipset, 8400 mAh battery, 256 GB storage, 12 GB RAM, Corning Gorilla Glass."
      },
      {
        "id": 12392,
        "name": "Galaxy Tab S9+",
        "img": "http://mobilephonesdb.com/images/035007c7-51c7-4e43-99a6-78371f442092.jpg",
        "description": "Samsung Galaxy Tab S9+ Android tablet. Announced Jul 2023. Features 12.4″  display, Snapdragon 8 Gen 2 chipset, 10090 mAh battery, 512 GB storage, 12 GB RAM, Corning Gorilla Glass."
      },
      {
        "id": 12391,
        "name": "Galaxy Tab S9 Ultra",
        "img": "http://mobilephonesdb.com/images/5bf29c79-83bf-4b8a-a88a-36ba203adf47.jpg",
        "description": "Samsung Galaxy Tab S9 Ultra Android tablet. Announced Jul 2023. Features 14.6″  display, Snapdragon 8 Gen 2 chipset, 11200 mAh battery, 1024 GB storage, 16 GB RAM, Corning Gorilla Glass."
      },
      {
        "id": 12390,
        "name": "Galaxy Z Flip5",
        "img": "http://mobilephonesdb.com/images/0d97def6-f449-41ad-ac6d-0eff5bfcb086.jpg",
        "description": "Samsung Galaxy Z Flip5 Android smartphone. Announced Jul 2023. Features 6.7″  display, Snapdragon 8 Gen 2 chipset, 3700 mAh battery, 512 GB storage, 8 GB RAM."
      },
      {
        "id": 12389,
        "name": "Galaxy Z Fold5",
        "img": "http://mobilephonesdb.com/images/1d5b99fd-9a6d-4dbd-b4be-c02c0cf7a4a0.jpg",
        "description": "Samsung Galaxy Z Fold5 Android smartphone. Announced Jul 2023. Features 7.6″  display, Snapdragon 8 Gen 2 chipset, 4400 mAh battery, 1024 GB storage, 12 GB RAM."
      },
      {
        "id": 12388,
        "name": "Galaxy F34",
        "img": "http://mobilephonesdb.com/images/923b5bbe-31bd-482c-b5d5-f00611825c54.jpg",
        "description": "Samsung Galaxy F34 Android smartphone. Announced Aug 2023. Features 6.5″  display, Exynos 1280 chipset, 6000 mAh battery, 128 GB storage, 8 GB RAM, Corning Gorilla Glass 5."
      },
      {
        "id": 12178,
        "name": "Galaxy A24 4G",
        "img": "http://mobilephonesdb.com/images/8e43dfd0-f3cb-4dea-9860-6b18b465ab88.jpg",
        "description": "Samsung Galaxy A24 4G Android smartphone. Announced Apr 2023. Features 6.5″  display, MT8781 Helio G99 chipset, 5000 mAh battery, 128 GB storage, 8 GB RAM."
      },
      {
        "id": 12177,
        "name": "Galaxy F54",
        "img": "http://mobilephonesdb.com/images/41e7697e-416c-48e0-8959-52a98db0bf8d.jpg",
        "description": "Samsung Galaxy F54 Android smartphone. Announced Jun 2023. Features 6.7″  display, Exynos 1380 chipset, 6000 mAh battery, 256 GB storage, 8 GB RAM."
      },
      {
        "id": 12035,
        "name": "Galaxy A14",
        "img": "http://mobilephonesdb.com/images/b4e38f89-0b05-4319-a6f3-d932906184c1.jpg",
        "description": "Samsung Galaxy A14 Android smartphone. Announced Feb 2023. Features 6.6″  display, MT6769 Helio G80 chipset, 5000 mAh battery, 128 GB storage, 6 GB RAM."
      },
      {
        "id": 12034,
        "name": "Galaxy S23",
        "img": "http://mobilephonesdb.com/images/e3579095-b230-435a-bad3-75d6c29838f8.jpg",
        "description": "Samsung Galaxy S23 Android smartphone. Announced Feb 2023. Features 6.1″  display, Snapdragon 8 Gen 2 chipset, 3900 mAh battery, 512 GB storage, 8 GB RAM, Corning Gorilla Glass Victus 2."
      },
      {
        "id": 12033,
        "name": "Galaxy S23+",
        "img": "http://mobilephonesdb.com/images/c34f6777-da76-4b7e-814f-08102f504a8c.jpg",
        "description": "Samsung Galaxy S23+ Android smartphone. Announced Feb 2023. Features 6.6″  display, Snapdragon 8 Gen 2 chipset, 4700 mAh battery, 512 GB storage, 8 GB RAM, Corning Gorilla Glass Victus 2."
      },
      {
        "id": 12032,
        "name": "Galaxy S23 Ultra",
        "img": "http://mobilephonesdb.com/images/abafd020-4835-4ebb-9114-c87e962b2e3c.jpg",
        "description": "Samsung Galaxy S23 Ultra Android smartphone. Announced Feb 2023. Features 6.8″  display, Snapdragon 8 Gen 2 chipset, 5000 mAh battery, 1024 GB storage, 12 GB RAM, Corning Gorilla Glass Victus 2."
      },
      {
        "id": 12031,
        "name": "Galaxy M14",
        "img": "http://mobilephonesdb.com/images/f5d348f9-0d17-4966-b290-264a3b0e1aed.jpg",
        "description": "Samsung Galaxy M14 Android smartphone. Announced Mar 2023. Features 6.6″  display, Exynos 1330 chipset, 6000 mAh battery, 128 GB storage, 4 GB RAM."
      },
      {
        "id": 12030,
        "name": "Galaxy A34",
        "img": "http://mobilephonesdb.com/images/7b98c72d-9f5d-4a18-aa55-2f68055c8773.jpg",
        "description": "Samsung Galaxy A34 Android smartphone. Announced Mar 2023. Features 6.6″  display, MT6877V Dimensity 1080 chipset, 5000 mAh battery, 256 GB storage, 8 GB RAM, Corning Gorilla Glass 5."
      },
      {
        "id": 12029,
        "name": "Galaxy A54",
        "img": "http://mobilephonesdb.com/images/a10da6b5-9f3d-4cd6-bcf8-b4feb8eb57a6.jpg",
        "description": "Samsung Galaxy A54 Android smartphone. Announced Mar 2023. Features 6.4″  display, Exynos 1380 chipset, 5000 mAh battery, 256 GB storage, 8 GB RAM, Corning Gorilla Glass 5."
      },
      {
        "id": 12028,
        "name": "Galaxy M54",
        "img": "http://mobilephonesdb.com/images/dbe51872-5ce9-4647-82e8-794619aa9da1.jpg",
        "description": "Samsung Galaxy M54 Android smartphone. Announced Mar 2023. Features 6.7″  display, Exynos 1380 chipset, 6000 mAh battery, 256 GB storage, 8 GB RAM, Corning Gorilla Glass 5."
      },
      {
        "id": 12027,
        "name": "Galaxy F14",
        "img": "http://mobilephonesdb.com/images/b3882d53-f485-4a7e-9b96-0e5cdf35d661.jpg",
        "description": "Samsung Galaxy F14 Android smartphone. Announced Mar 2023. Features 6.6″  display, Exynos 1330 chipset, 6000 mAh battery, 128 GB storage, 6 GB RAM, Corning Gorilla Glass 5."
      },
      {
        "id": 9297,
        "name": "M8920",
        "img": "http://mobilephonesdb.com/images/d471e273-c5ab-441f-a94a-a9b27d1e3d50.jpeg",
        "description": "Samsung M8920 phone. Not officially announced yet. Features 3.3″  display, 12 MP primary camera, 1500 mAh battery, 8 GB storage."
      },
      {
        "id": 9296,
        "name": "C5030",
        "img": "http://mobilephonesdb.com/images/e2d38628-79e2-4345-8506-6bdb63e9532a.jpeg",
        "description": "Samsung C5030 phone. Not officially announced yet. Features 2.8″  display, 2 MP primary camera."
      },
      {
        "id": 9295,
        "name": "Guru Dual 26",
        "img": "http://mobilephonesdb.com/images/633c75d7-7024-45cf-9911-4c52c4e681b8.jpeg",
        "description": "Samsung Guru Dual 26 phone. Not officially announced yet. Features 2.0″  display."
      },
      {
        "id": 9294,
        "name": "Galaxy C10",
        "img": "http://mobilephonesdb.com/images/9382e925-e831-4883-991e-809e0e4a3077.jpeg",
        "description": "Samsung Galaxy C10 Android smartphone. Not announced yet. Features 6.0″  display, Snapdragon 660 chipset, Dual: 13 MP (f/1.7, AF) + 5 MP primary camera, 16 MP front camera, 4000 mAh battery, 128 GB storage, 6 GB RAM, To be confirmed."
      },
      {
        "id": 9293,
        "name": "Galaxy Tab 3 Plus 10.1 P8220",
        "img": "http://mobilephonesdb.com/images/3b18edb6-27aa-4e26-bc7c-9211b29cd57b.jpeg",
        "description": "Samsung Galaxy Tab 3 Plus 10.1 P8220 Android tablet. Not officially announced yet. Features 10.1″  display, 64 GB storage, 2 GB RAM, Corning Gorilla Glass 2."
      },
      {
        "id": 9292,
        "name": "Galaxy F",
        "img": "http://mobilephonesdb.com/images/c704102e-9822-49a1-a0d3-1ea3f6cadeb4.jpeg",
        "description": "Samsung Galaxy F Android smartphone. Features 5.1″  display, Snapdragon 805 chipset, 16 MP primary camera, 2 MP front camera, 32 GB storage, 3 GB RAM, Corning Gorilla Glass 3."
      },
      {
        "id": 9291,
        "name": "Galaxy Grand 3",
        "img": "http://mobilephonesdb.com/images/57344652-fbc2-4972-949c-cb5ae58e4b25.jpeg",
        "description": "Samsung Galaxy Grand 3 Android smartphone. Not announced yet. Features 5.25″  display, Snapdragon 410 chipset, 13 MP primary camera, 5 MP front camera, 16 GB storage, 1.5 GB RAM."
      },
      {
        "id": 9290,
        "name": "Galaxy S6 Plus",
        "img": "http://mobilephonesdb.com/images/d726e012-ef51-46b1-8c17-4b9847f41ecc.jpeg",
        "description": "Samsung Galaxy S6 Plus Android smartphone. Announced Q3 2015. Features 5.5″  display, Exynos 7420 Octa chipset, 16 MP primary camera, 5 MP front camera, 3000 mAh battery, 32 GB storage, 4 GB RAM, To be confirmed."
      },
      {
        "id": 9289,
        "name": "Galaxy S7 mini",
        "img": "http://mobilephonesdb.com/images/f190ab68-d702-4e71-83ca-9dd203ed0882.jpeg",
        "description": "Samsung Galaxy S7 mini Android smartphone. Not announced yet. Features 4.6″  display, Snapdragon 820 chipset, 12 MP primary camera, 5 MP front camera, 64 GB storage, 3 GB RAM."
      },
      {
        "id": 9288,
        "name": "Galaxy J5 Prime (2017)",
        "img": "http://mobilephonesdb.com/images/e21f3cec-9a1d-4549-bf4b-1dbc50a7589f.jpeg",
        "description": "Samsung Galaxy J5 Prime (2017) Android smartphone. Not announced yet. Features 5.0″  display, Exynos 7570 Quad chipset, 13 MP primary camera, 8 MP front camera, 2500 mAh battery, 32 GB storage, 3 GB RAM, Corning Gorilla Glass (market dependent)."
      },
      {
        "id": 9287,
        "name": "Galaxy On5 (2016)",
        "img": "http://mobilephonesdb.com/images/bceae00c-e35d-4b4a-99ae-bf4989e1e461.jpeg",
        "description": "Samsung Galaxy On5 (2016) Android smartphone. Not announced yet. Features 5.0″  display, 13 MP primary camera, 8 MP front camera, 2600 mAh battery, 32 GB storage, 3 GB RAM."
      },
      {
        "id": 9286,
        "name": "Galaxy S9 Active",
        "img": "http://mobilephonesdb.com/images/7d14dd7e-63ee-42ed-9887-915d0f6694d9.jpeg",
        "description": "Samsung Galaxy S9 Active Android smartphone. Not announced yet. Features 5.8″  display, Snapdragon 845 chipset, 12 MP primary camera, 8 MP front camera, 4000 mAh battery, 64 GB storage, 4 GB RAM, MIL-STD-810G compliant, Corning Gorilla Glass 5."
      },
      {
        "id": 9285,
        "name": "Galaxy A91",
        "img": "http://mobilephonesdb.com/images/171b37cd-0568-4436-bb23-0bf3e1e7a6b5.jpeg",
        "description": "Samsung Galaxy A91 Android smartphone. Not announced yet. Features 6.7″  display, Snapdragon 855 chipset, 4500 mAh battery, 128 GB storage, 8 GB RAM."
      },
      {
        "id": 9284,
        "name": "Galaxy A72 5G",
        "img": "http://mobilephonesdb.com/images/442f996e-48a2-42b6-893a-46a9d45de3f1.jpeg",
        "description": "Samsung Galaxy A72 5G Android smartphone. Not announced yet. Features 6.7″  display, Snapdragon 750G 5G chipset, 5000 mAh battery, 256 GB storage, 8 GB RAM, Unspecified."
      },
      {
        "id": 9283,
        "name": "Galaxy S21",
        "img": "http://mobilephonesdb.com/images/d3ee877d-9da2-4a38-8701-d32bdf0dc305.jpeg",
        "description": "Samsung Galaxy S21 Android smartphone. Not announced yet. Features 6.2″  display, Exynos 2100 chipset, 4000 mAh battery, 256 GB storage, 8 GB RAM, Corning Gorilla Glass Victus."
      },
      {
        "id": 9282,
        "name": "Galaxy M34 5G",
        "img": "http://mobilephonesdb.com/images/5f01653b-6b2d-41af-95d0-9c4c74147143.jpeg",
        "description": "Samsung Galaxy M34 5G Android smartphone. Not announced yet. Features 6.5″  display, Exynos 1200 chipset, 6000 mAh battery, 256 GB storage, 8 GB RAM, Unspecified."
      },
      {
        "id": 9281,
        "name": "Galaxy A04 Core",
        "img": "http://mobilephonesdb.com/images/7c00ed52-5cbf-433b-a47f-4871363c9039.jpeg",
        "description": "Samsung Galaxy A04 Core Android smartphone. Not announced yet. Features 6.5″  display, Exynos 850 chipset, 5000 mAh battery, 32 GB storage, 3 GB RAM."
      },
      {
        "id": 9280,
        "name": "SGH-250",
        "img": "http://mobilephonesdb.com/images/17835e6d-6e94-44dd-9a9a-b89e1fe8f308.gif",
        "description": "Samsung SGH-250 phone. Announced  1996. Features Alphanumeric display, 700 mAh battery."
      },
      {
        "id": 9279,
        "name": "SGH-500",
        "img": "http://mobilephonesdb.com/images/a4e93885-3cb0-4858-bf67-26ce96ece71e.gif",
        "description": "Samsung SGH-500 phone. Announced  1998. Features Monochrome graphic display, 700 mAh battery."
      },
      {
        "id": 9278,
        "name": "SGH-600",
        "img": "http://mobilephonesdb.com/images/68059604-5536-4cdb-bbcb-57dfb98ee60a.gif",
        "description": "Samsung SGH-600 phone. Announced  1999. Features Monochrome graphic display, 700 mAh battery."
      },
      {
        "id": 9277,
        "name": "SGH-800",
        "img": "http://mobilephonesdb.com/images/4695327a-77fb-48ae-9f22-9cd8a3cd86b7.gif",
        "description": "Samsung SGH-800 phone. Announced  2000. Features Monochrome graphic display, 700 mAh battery."
      },
      {
        "id": 9276,
        "name": "SGH-810",
        "img": "http://mobilephonesdb.com/images/a2b2397c-2830-4188-a619-355554311e86.gif",
        "description": "Samsung SGH-810 phone. Announced  2000. Features Monochrome graphic display, 700 mAh battery."
      },
      {
        "id": 9275,
        "name": "SGH-2100",
        "img": "http://mobilephonesdb.com/images/1ad240c9-b5a4-4484-9495-27929af32a95.gif",
        "description": "Samsung SGH-2100 phone. Announced  1999. Features Monochrome graphic display, 700 mAh battery."
      },
      {
        "id": 9274,
        "name": "SGH-2200",
        "img": "http://mobilephonesdb.com/images/d772cc83-2fa5-4ba2-b80f-8d546e7d335f.gif",
        "description": "Samsung SGH-2200 phone. Announced  1999. Features Monochrome graphic display, 700 mAh battery."
      },
      {
        "id": 9273,
        "name": "SGH-2400",
        "img": "http://mobilephonesdb.com/images/6d26f5ee-fa86-4f63-9f03-9ebf00c860b2.gif",
        "description": "Samsung SGH-2400 phone. Announced  1999. Features Monochrome graphic display, 700 mAh battery."
      },
      {
        "id": 9272,
        "name": "A100",
        "img": "http://mobilephonesdb.com/images/b36755a3-95b1-4ebb-b0e5-5b33f2f4bc7f.gif",
        "description": "Samsung A100 phone. Announced  2000. Features Monochrome graphic display, 700 mAh battery."
      },
      {
        "id": 9271,
        "name": "A110",
        "img": "http://mobilephonesdb.com/images/47c2feaf-1012-4407-a301-55750963f49b.gif",
        "description": "Samsung A110 phone. Announced  2000. Features Monochrome graphic display, 800 mAh battery."
      },
      {
        "id": 9270,
        "name": "M100",
        "img": "http://mobilephonesdb.com/images/d82f04d0-d25f-445f-850c-31dda1a8be88.gif",
        "description": "Samsung M100 phone. Announced  2000. Features Monochrome graphic display, 800 mAh battery, 32 MB storage."
      },
      {
        "id": 9269,
        "name": "N100",
        "img": "http://mobilephonesdb.com/images/56c0f496-6d29-4ff3-aeda-f0c4b1271f39.gif",
        "description": "Samsung N100 phone. Announced  2000. Features Monochrome graphic display, 1300 mAh battery."
      },
      {
        "id": 9268,
        "name": "N105",
        "img": "http://mobilephonesdb.com/images/be119a37-a4cb-45e2-8786-6bf3059266ec.gif",
        "description": "Samsung N105 phone. Announced  2001. Features Monochrome graphic display, 750 mAh battery."
      },
      {
        "id": 9267,
        "name": "Q100",
        "img": "http://mobilephonesdb.com/images/53837adc-cbda-4f70-b644-97c3e003144f.gif",
        "description": "Samsung Q100 phone. Announced  2001. Features Monochrome graphic display, 600 mAh battery."
      },
      {
        "id": 9266,
        "name": "A200",
        "img": "http://mobilephonesdb.com/images/e04241e3-284e-423f-9ece-2e6f43b7dcd0.gif",
        "description": "Samsung A200 phone. Announced  2001. Features Grayscale graphic, 4 shades display, 600 mAh battery."
      },
      {
        "id": 9265,
        "name": "R200",
        "img": "http://mobilephonesdb.com/images/0eac8c99-e78e-45d7-9deb-9ff1a5959cbe.gif",
        "description": "Samsung R200 phone. Announced  2001. Features Monochrome graphic display, 750 mAh battery."
      },
      {
        "id": 9264,
        "name": "R210",
        "img": "http://mobilephonesdb.com/images/54cdb700-bb53-457c-9884-b2abdcace069.gif",
        "description": "Samsung R210 phone. Announced  2001. Features Monochrome graphic display, 750 mAh battery."
      }
    ],
    "paging": {
      "totalPage": 23,
      "currentPage": 1
    }
  },
  "message": "Devices fetched successfully."
}
